{
	"info": {
		"_postman_id": "f69d522b-3f27-41b1-afe3-084a4348f14b",
		"name": "Kotlin-Ktor",
		"schema": "https://schema.getpostman.com/json/collection/v2.1.0/collection.json"
	},
	"item": [
		{
			"name": "Cars",
			"item": [
				{
					"name": "ListAll",
					"request": {
						"method": "GET",
						"header": [],
						"url": {
							"raw": "http://localhost:8080/car",
							"protocol": "http",
							"host": [
								"localhost"
							],
							"port": "8080",
							"path": [
								"car"
							]
						}
					},
					"response": []
				},
				{
					"name": "GetById",
					"request": {
						"method": "GET",
						"header": [],
						"url": {
							"raw": "http://localhost:8080/car/033833ea-1e68-41f4-9cec-08e9b6947065",
							"protocol": "http",
							"host": [
								"localhost"
							],
							"port": "8080",
							"path": [
								"car",
								"033833ea-1e68-41f4-9cec-08e9b6947065"
							]
						}
					},
					"response": []
				},
				{
					"name": "AddCar",
					"request": {
						"method": "POST",
						"header": [],
						"body": {
							"mode": "raw",
							"raw": "{\n    \"brand\": \"Honda\",\n    \"model\": \"Civic\"\n}",
							"options": {
								"raw": {
									"language": "json"
								}
							}
						},
						"url": {
							"raw": "http://localhost:8080/car",
							"protocol": "http",
							"host": [
								"localhost"
							],
							"port": "8080",
							"path": [
								"car"
							]
						}
					},
					"response": []
				},
				{
					"name": "DeleteById",
					"request": {
						"method": "DELETE",
						"header": [],
						"url": {
							"raw": "http://localhost:8080/car/4d5bdd01-5ebe-4e85-91ee-3f29119bd2e0",
							"protocol": "http",
							"host": [
								"localhost"
							],
							"port": "8080",
							"path": [
								"car",
								"4d5bdd01-5ebe-4e85-91ee-3f29119bd2e0"
							]
						}
					},
					"response": []
				},
				{
					"name": "UpdateCar",
					"request": {
						"method": "PUT",
						"header": [],
						"body": {
							"mode": "raw",
							"raw": "{\n    \"id\": \"4d5bdd01-5ebe-4e85-91ee-3f29119bd2e0\",\n    \"brand\": \"Honda\",\n    \"model\": \"Civic\"\n}",
							"options": {
								"raw": {
									"language": "json"
								}
							}
						},
						"url": {
							"raw": "http://localhost:8080/car",
							"protocol": "http",
							"host": [
								"localhost"
							],
							"port": "8080",
							"path": [
								"car"
							]
						}
					},
					"response": []
				}
			]
		},
		{
			"name": "Coroutine Scope",
			"item": [
				{
					"name": "CoroutineScope Teste",
					"request": {
						"method": "GET",
						"header": [],
						"url": {
							"raw": "http://localhost:8080/coroutineScope",
							"protocol": "http",
							"host": [
								"localhost"
							],
							"port": "8080",
							"path": [
								"coroutineScope"
							]
						}
					},
					"response": []
				}
			]
		}
	]
}